<?xml version="1.0" encoding="UTF-8"?>
<svg width="17px" height="13px" viewBox="0 0 17 13" version="1.1" xmlns="http://www.w3.org/2000/svg" xmlns:xlink="http://www.w3.org/1999/xlink">
    <!-- Generator: Sketch 59.1 (86144) - https://sketch.com -->
    <title>envelope</title>
    <desc>Created with Sketch.</desc>
    <g id="Landings" stroke="none" stroke-width="1" fill="none" fill-rule="evenodd">
        <g id="envelope" fill="#000000">
            <path d="M17,11.5225193 L17,4.19170923 C16.7280011,4.48703074 16.4118762,4.75496096 16.0511935,4.99495011 L14.2529225,6.18670753 C13.1516077,6.92173579 12.2453891,7.53780145 11.5344533,8.03484925 L10.8373185,8.52544815 C10.6910767,8.62625345 10.5618224,8.71282548 10.4495306,8.78510357 C10.2249471,8.92975678 9.9262666,9.07748222 9.55305721,9.2282152 C9.25459602,9.34898268 8.97238168,9.42129829 8.70626105,9.44539384 L8.49048037,9.45442786 C8.16794266,9.45442786 7.8200525,9.37917455 7.44697602,9.2282152 C7.07389954,9.07748222 6.77501969,8.92975678 6.55050261,8.78510357 L6.16278534,8.52544815 L6.16278534,8.52544815 L4.89810845,7.63853213 C3.98856943,7.01181826 2.6752903,6.13056514 0.958243017,4.99495011 C0.669776615,4.80795196 0.407679423,4.59907699 0.171900404,4.36860668 L0,4.19170923 L0,11.5225193 C0,11.9290229 0.1485594,12.2766369 0.445844336,12.5659433 C0.705910507,12.8191714 1.01204793,12.961575 1.36416757,12.9932192 L1.51789096,13 L15.4822087,13 C15.899544,13 16.256904,12.8553468 16.5541557,12.5659433 C16.8143381,12.3127153 16.9605509,12.0150189 16.9930387,11.6722041 L17,11.5225193 L17,4.19170923 L17,11.5225193 Z" id="Path"></path>
            <path d="M15.4820758,-3.74811293e-13 L1.51779128,-3.74811293e-13 C1.03084474,-3.74811293e-13 0.65610689,0.160014329 0.393644198,0.480042986 C0.131214733,0.800136322 -5.32907052e-15,1.20023682 -5.32907052e-15,1.68031215 C-5.32907052e-15,2.06809142 0.173978308,2.48830689 0.521768789,2.94069987 C0.811566499,3.31772097 1.1168703,3.62743612 1.43746867,3.86978917 L6.171908,7.08381674 L6.171908,7.08381674 L6.86874361,7.56817518 L6.86874361,7.56817518 L6.97720801,7.64029613 C7.11320747,7.72948762 7.27761631,7.82954509 7.47060065,7.94030682 C7.66351854,8.05097154 7.84537173,8.13421263 8.01612698,8.18931861 C8.12998597,8.22635777 8.2382037,8.25093556 8.34079001,8.26320529 L8.50955286,8.272398 C8.65498889,8.272398 8.81315099,8.24484501 8.98393947,8.18931861 C9.15462827,8.13421263 9.3366476,8.05087453 9.52939935,7.94030682 C9.65796697,7.86637943 9.77389344,7.7973101 9.8771886,7.7330605 L10.1311614,7.56817518 L10.1311614,7.56817518 L11.5428708,6.59857946 C12.3160199,6.07578053 13.5943979,5.21188142 15.3778084,4.00692308 C15.839469,3.69313588 16.2251719,3.31450861 16.5350167,2.87129996 C16.8450942,2.42828535 16.9999668,1.9635388 16.9999668,1.47731903 C16.9999668,1.07100941 16.8496796,0.723201381 16.549238,0.433927297 C16.2863808,0.180755879 15.9811155,0.0384088557 15.6335982,0.00677790332 L15.4820758,-3.74811293e-13 Z" id="Path"></path>
        </g>
    </g>
</svg>